<?xml version="1.0" encoding="UTF-8" standalone="no"?>
<!-- Created with Inkscape (http://www.inkscape.org/) -->

<svg
   xmlns:dc="http://purl.org/dc/elements/1.1/"
   xmlns:cc="http://creativecommons.org/ns#"
   xmlns:rdf="http://www.w3.org/1999/02/22-rdf-syntax-ns#"
   xmlns:svg="http://www.w3.org/2000/svg"
   xmlns="http://www.w3.org/2000/svg"
   xmlns:sodipodi="http://sodipodi.sourceforge.net/DTD/sodipodi-0.dtd"
   xmlns:inkscape="http://www.inkscape.org/namespaces/inkscape"
   width="155"
   height="32.534199"
   viewBox="0 0 155 32.534199"
   version="1.1"
   id="svg866"
   inkscape:version="0.92.3 (2405546, 2018-03-11)"
   sodipodi:docname="Логотип (иконка без градиентов).svg">
  <defs
     id="defs860" />
  <sodipodi:namedview
     id="base"
     pagecolor="#ffffff"
     bordercolor="#666666"
     borderopacity="1.0"
     inkscape:pageopacity="0.0"
     inkscape:pageshadow="2"
     inkscape:zoom="5.6"
     inkscape:cx="80.84097"
     inkscape:cy="44.946058"
     inkscape:document-units="px"
     inkscape:current-layer="layer1"
     showgrid="false"
     units="px" />
  <metadata
     id="metadata863">
    <rdf:RDF>
      <cc:Work
         rdf:about="">
        <dc:format>image/svg+xml</dc:format>
        <dc:type
           rdf:resource="http://purl.org/dc/dcmitype/StillImage" />
        <dc:title></dc:title>
      </cc:Work>
    </rdf:RDF>
  </metadata>
  <g
     inkscape:label="Layer 1"
     inkscape:groupmode="layer"
     id="layer1"
     transform="translate(0,-67.4658)">
    <path
       inkscape:connector-curvature="0"
       d="m 19.08711,84.1337 -0.79181,1.5542 -0.64531,1.2666 -4.375,8.5878 v -1e-4 L 11.00406,100 V 82.6476 c 0.18455,-1.3616 1.34495,-2.4135 2.75393,-2.4276 l 9e-5,-3e-4 h 7.32276 l -0.58917,1.1562 h 9e-5 z"
       style="fill:#f73149;fill-opacity:1;stroke-width:0.45022383"
       id="path874" />
    <path
       inkscape:connector-curvature="0"
       d="m 22.45033,78.997 h -0.56994 -0.0167 -0.75967 -0.25622 -0.002 -0.002 -7.08652 l -0.002,-0.01 c -1.49915,-0.03 -2.71021,-1.2344 -2.75015,-2.7309 v -8.7903 c 6.19968,0.3261 11.16398,5.3195 11.44483,11.5311 z"
       style="fill:#7cb83a;fill-opacity:1;stroke-width:0.45022383"
       id="path876" />
    <path
       inkscape:connector-curvature="0"
       d="M 9.78103,95.6559 6.01698,88.2669 3.17516,82.6885 h 3.2e-4 L 1.91845,80.2214 h 2.61792 9e-4 9e-4 0.001 9e-4 9e-4 9e-4 9e-4 9e-4 9e-4 10e-4 9e-4 9e-4 9e-4 0.001 9e-4 0.046 -4.5e-4 2.42945 2.2e-4 c 1.50834,0.029 2.72561,1.2458 2.75393,2.7539 l 10e-4,2e-4 z"
       style="fill:#52b6e9;fill-opacity:1;stroke-width:0.45022383"
       id="path878" />
    <path
       inkscape:connector-curvature="0"
       d="m 0,78.997 c 0.18122,-3.1161 1.73625,-5.8641 4.06764,-7.6478 l 0.008,-0.01 c 0.0603,-0.046 0.12071,-0.091 0.1818,-0.1357 l 0.008,-0.01 c 0.0619,-0.045 0.1244,-0.089 0.18711,-0.1332 h 0.003 c 0.0634,-0.044 0.12764,-0.088 0.19247,-0.1305 h 0.003 C 5.14083,70.6056 5.65976,70.322 6.20273,70.0834 h 0.003 C 6.67548,69.8769 7.1633,69.7048 7.66652,69.5691 h 0.008 c 0.0718,-0.019 0.14362,-0.038 0.21619,-0.055 l 0.0288,-0.01 c 0.0723,-0.017 0.14475,-0.034 0.2175,-0.05 h 0.0126 c 0.0759,-0.017 0.15177,-0.032 0.22809,-0.047 H 8.388 c 0.43518,-0.085 0.8805,-0.1417 1.33338,-0.1701 l 0.006,-4e-4 h 0.0548 v 7.0105 l -4.1e-4,1e-4 c -0.0287,1.508 -1.24639,2.7252 -2.75469,2.7534 l -1.3e-4,5e-4 H 5.87558 Z"
       style="fill:#ffc600;fill-opacity:1;stroke-width:0.45022383"
       id="path880" />
    <path
       inkscape:connector-curvature="0"
       style="fill:#454c56;fill-opacity:1;fill-rule:evenodd;stroke-width:0.45022559"
       d="m 80.70899,75.3741 v 9.5781 c 0.34235,2.742 2.50493,4.9193 5.24023,5.2813 H 95.56641 155 v -9.584 c -0.3518,-2.7625 -2.55253,-4.9475 -5.32227,-5.2754 h -9.53515 z m -48.96875,0.049 c -1.63567,0 -2.96094,1.3253 -2.96094,2.961 v 8.8867 2.9629 h 2.96094 2.96289 c 1.63571,0 2.96094,-1.3272 2.96094,-2.9629 h -2.96094 -2.96289 v -8.8867 h 2.96289 c 1.63558,0 2.96094,-1.3254 2.96094,-2.961 h -2.96094 z m 11.84961,0 c -1.63567,0 -2.96289,1.3253 -2.96289,2.961 v 8.8867 2.9629 c 1.63571,0 2.96289,-1.3272 2.96289,-2.9629 v -8.8867 h 2.96094 c 1.63571,0 2.96289,-1.3253 2.96289,-2.961 h -2.96289 z m 10.34375,0 c -1.63567,0 -2.96289,1.3253 -2.96289,2.961 v 2.9629 5.9218 2.961 c 1.63567,0 2.96289,-1.3253 2.96289,-2.961 V 84.3079 81.347 78.3841 h 4.4668 v 2.9629 c -1.63567,0 -2.9629,1.3252 -2.9629,2.9609 h 2.9629 c 1.63571,0 2.96093,-1.3253 2.96093,-2.9609 v -2.9629 c 0,-1.6357 -1.32522,-2.961 -2.96093,-2.961 z m 13.35156,0 c -1.63567,0 -2.96094,1.3253 -2.96094,2.961 v 8.8867 2.9629 c 1.63572,0 2.96094,-1.3272 2.96094,-2.9629 v -2.9629 h 3.07031 V 81.347 h -3.07031 v -2.9629 z m 7.38281,0 c -1.63567,0 -2.96289,1.3253 -2.96289,2.961 v 8.8867 2.9629 c 1.63567,0 2.96289,-1.3272 2.96289,-2.9629 v -8.8867 z m 15.32813,2.5098 v 0.02 h 3.22656 v -0.02 c 1.7819,0 3.22852,1.4466 3.22852,3.2285 h -0.0195 v 3.2266 h 0.0195 c 0,1.7817 -1.44662,3.2265 -3.22852,3.2265 v -0.02 H 89.9961 v 0.02 c -1.7819,0 -3.22656,-1.4448 -3.22656,-3.2265 h 0.0195 v -3.2266 h -0.0195 c 0,-1.7819 1.44466,-3.2285 3.22656,-3.2285 z m 8.06836,0 h 1.61328 v 4.0469 h 4.83984 v -4.0469 h 1.61328 v 4.0469 1.6133 4.0214 h -1.61328 v -4.0214 h -4.83984 v 4.0214 h -1.61328 v -4.0214 -1.6133 z m 14.52148,0 h 3.22656 1.61328 v 1.6133 8.0683 h -1.61328 v -8.0683 h -3.22656 c -0.89122,0 -1.61524,0.7242 -1.61524,1.6152 v 3.2266 c 0,1.7817 -1.44475,3.2265 -3.22656,3.2265 v -1.6132 c 0.89077,0 1.61328,-0.7224 1.61328,-1.6133 v -3.2266 c 0,-1.7819 1.44648,-3.2285 3.22852,-3.2285 z m 9.67968,0 h 4.04688 0.79297 0.82031 v 9.6816 h -1.61328 v -4.0214 h -5.66016 v 4.0214 h -1.61328 v -4.0214 -1.6133 -0.8184 c 0,-1.7819 1.44466,-3.2285 3.22656,-3.2285 z m 7.27344,0 h 1.61328 v 6.4551 c 0,0.8909 0.72239,1.6133 1.61328,1.6133 h 4.04688 v -8.0684 h 1.61328 v 9.6816 h -0.81836 -0.79492 -4.04688 c -1.78194,0 -3.22656,-1.4448 -3.22656,-3.2265 z m 2.8418,0 h 3.22656 v 1.6133 h -3.22656 z m 7.63281,0 h 1.61328 v 4.0469 h 4.8418 v -4.0469 h 1.61328 v 4.0469 1.6133 4.0214 h -1.61328 v -4.0214 h -4.8418 v 4.0214 h -1.61328 V 83.5931 81.9798 Z M 89.9961,79.5462 c -0.89104,0 -1.61328,0.7242 -1.61328,1.6152 v 3.2266 c 0,0.8909 0.72224,1.6133 1.61328,1.6133 h 3.22656 c 0.89095,0 1.61328,-0.7224 1.61328,-1.6133 v -3.2266 c 0,-0.891 -0.72233,-1.6152 -1.61328,-1.6152 z m 32.26952,0 c -0.89113,0 -1.61328,0.7242 -1.61328,1.6152 v 0.8184 h 5.66016 V 79.5462 Z M 33.08985,81.347 v 2.9609 h 1.61328 c 1.63558,0 2.96094,-1.3254 2.96094,-2.9609 h -2.96094 z"
       id="path882" />
  </g>
</svg>
