<?xml version="1.0" encoding="UTF-8" standalone="no"?>
<!-- Created with Inkscape (http://www.inkscape.org/) -->

<svg
   xmlns:dc="http://purl.org/dc/elements/1.1/"
   xmlns:cc="http://creativecommons.org/ns#"
   xmlns:rdf="http://www.w3.org/1999/02/22-rdf-syntax-ns#"
   xmlns:svg="http://www.w3.org/2000/svg"
   xmlns="http://www.w3.org/2000/svg"
   xmlns:sodipodi="http://sodipodi.sourceforge.net/DTD/sodipodi-0.dtd"
   xmlns:inkscape="http://www.inkscape.org/namespaces/inkscape"
   width="69.005302"
   height="100"
   viewBox="0 0 69.005302 100"
   version="1.1"
   id="svg1409"
   inkscape:version="0.92.3 (2405546, 2018-03-11)"
   sodipodi:docname="logo-icon.svg">
  <defs
     id="defs1403" />
  <sodipodi:namedview
     id="base"
     pagecolor="#ffffff"
     bordercolor="#666666"
     borderopacity="1.0"
     inkscape:pageopacity="0.0"
     inkscape:pageshadow="2"
     inkscape:zoom="5"
     inkscape:cx="28.795533"
     inkscape:cy="60.915512"
     inkscape:document-units="px"
     inkscape:current-layer="layer1"
     showgrid="false"
     units="px" />
  <metadata
     id="metadata1406">
    <rdf:RDF>
      <cc:Work
         rdf:about="">
        <dc:format>image/svg+xml</dc:format>
        <dc:type
           rdf:resource="http://purl.org/dc/dcmitype/StillImage" />
        <dc:title></dc:title>
      </cc:Work>
    </rdf:RDF>
  </metadata>
  <g
     inkscape:label="Layer 1"
     inkscape:groupmode="layer"
     id="layer1">
    <path
       style=""
       d="M 33.826172 0 L 33.826172 27.019531 C 33.948919 31.619306 37.672991 35.319902 42.28125 35.412109 L 42.285156 35.443359 L 69.005859 35.443359 C 68.142613 16.350835 52.882036 1.0023296 33.826172 0 z M 29.878906 5.4433594 C 28.486894 5.5306525 27.116912 5.7055331 25.779297 5.9667969 L 25.748047 5.9667969 C 25.513484 6.0129021 25.2802 6.0590771 25.046875 6.1113281 L 25.009766 6.1113281 C 24.786134 6.1605075 24.561948 6.213374 24.339844 6.265625 L 24.251953 6.2949219 C 24.028873 6.3471747 23.808763 6.4064445 23.587891 6.4648438 L 23.5625 6.4648438 C 22.015774 6.8819435 20.516202 7.410195 19.072266 8.0449219 L 19.0625 8.0449219 C 17.39358 8.778304 15.79849 9.649994 14.292969 10.646484 L 14.283203 10.646484 C 14.083926 10.777116 13.8864 10.913586 13.691406 11.048828 L 13.683594 11.048828 C 13.490827 11.184685 13.299668 11.318716 13.109375 11.457031 L 13.085938 11.488281 C 12.89815 11.625675 12.710827 11.76486 12.525391 11.90625 L 12.501953 11.935547 C 5.3359744 17.418086 0.55699848 25.865438 0 35.443359 L 18.056641 35.455078 L 21.597656 35.455078 C 26.233685 35.3684 29.976293 31.627318 30.064453 26.992188 L 30.064453 26.990234 L 30.064453 5.4433594 L 29.896484 5.4433594 L 29.878906 5.4433594 z M 42.287109 39.201172 L 42.287109 39.203125 C 37.956358 39.246464 34.389503 42.478927 33.822266 46.664062 L 33.822266 100 L 40.802734 86.298828 L 54.25 59.902344 L 56.234375 56.009766 L 58.667969 51.232422 L 62.984375 42.755859 L 64.796875 39.201172 L 42.287109 39.201172 z M 5.8964844 39.207031 L 9.7597656 46.789062 L 18.494141 63.935547 L 30.064453 86.648438 L 30.066406 47.671875 L 30.0625 47.671875 C 29.975454 43.036445 26.233823 39.296171 21.597656 39.207031 L 21.595703 39.207031 L 14.130859 39.207031 L 14.128906 39.207031 L 5.8964844 39.207031 z "
       id="path4" />
  </g>
</svg>
